name1#1363775400000#1363777200000#description2#location2
name1#1363773600000#1363775400000#description1XCVBNGFSDFDSFDSF#location1#name2
name2#1363773600000#1363777200000#description3XCVBNGFSDFDSFDSF#location3#name3
